(footprint "BatteryHolder_SMD_SMT_1x18650" (version 20211014) (generator pcbnew)
  (layer "F.Cu")
  (tedit 623675E2)
  (descr "Battery holder for 18650 cylindrical cells https://www.aliexpress.com/item/32831937650.html")
  (tags "18650 Keystone 1042 Li-ion")
  (attr smd)
  (fp_text reference "REF**" (at 0 0) (layer "F.SilkS")
    (effects (font (size 1 1) (thickness 0.15)))
    (tstamp a559f63f-b3a0-4b81-aa6a-605d4da47af6)
  )
  (fp_text value "Battery_Cell" (at 0 11.3) (layer "F.Fab")
    (effects (font (size 1 1) (thickness 0.15)))
    (tstamp 85a22866-16c5-4384-bc0b-22ed5b68a467)
  )
  (fp_text user "${REFERENCE}" (at 0 0) (layer "F.Fab")
    (effects (font (size 1 1) (thickness 0.15)))
    (tstamp 4e1a7683-466d-4d67-bce5-496395f4b0d5)
  )
  (fp_line (start 38.64 3.44) (end 38.64 10.44) (layer "F.SilkS") (width 0.12) (tstamp 08fae221-7b6f-4c57-be73-6210c6206091))
  (fp_line (start -38.64 -3.44) (end -43 -3.44) (layer "F.SilkS") (width 0.12) (tstamp 3381b763-2886-4e76-a243-cbcc2ec8a032))
  (fp_line (start 38.64 -3.44) (end 38.64 -10.42) (layer "F.SilkS") (width 0.12) (tstamp 3b5147db-69cc-4871-96a7-79c3437a6213))
  (fp_line (start -28.4 1.25) (end -28.4 -1.25) (layer "F.SilkS") (width 0.12) (tstamp 73486422-c87a-4ad4-8fe5-a3ffc70cb20a))
  (fp_line (start 38.64 10.44) (end -38.64 10.44) (layer "F.SilkS") (width 0.12) (tstamp 8fa4f87a-9012-4f6f-a6c0-ec1c5f716184))
  (fp_line (start -38.64 -10.44) (end -38.64 -3.44) (layer "F.SilkS") (width 0.12) (tstamp 9ad54c14-6dd1-4741-ab11-80a0275cae72))
  (fp_line (start 29.65 0) (end 27.15 0) (layer "F.SilkS") (width 0.12) (tstamp 9e39ed40-271f-40f8-b1c9-20b888c10512))
  (fp_line (start -38.64 10.44) (end -38.64 3.44) (layer "F.SilkS") (width 0.12) (tstamp b90997e2-4c7f-4479-862f-ab35dfea4f77))
  (fp_line (start 38.64 -10.44) (end -38.64 -10.44) (layer "F.SilkS") (width 0.12) (tstamp dc2e4d69-ab4d-4864-999d-7aa340dd63c7))
  (fp_line (start -29.65 0) (end -27.15 0) (layer "F.SilkS") (width 0.12) (tstamp e208ea3a-d990-4992-b395-c95b18b77f83))
  (fp_circle (center 28.4 0) (end 28.42 -1.85) (layer "F.SilkS") (width 0.12) (fill none) (tstamp 1d40bc5c-053b-4366-9830-737e9b0d8645))
  (fp_circle (center -28.4 0) (end -28.38 -1.85) (layer "F.SilkS") (width 0.12) (fill none) (tstamp 3893aed3-c284-470a-8742-8a03efe5beda))
  (fp_line (start -43.5 3.68) (end -43.5 -3.68) (layer "F.CrtYd") (width 0.05) (tstamp 0e852933-f119-4b7f-a503-b829e02656a9))
  (fp_line (start 39.03 3.68) (end 43.5 3.68) (layer "F.CrtYd") (width 0.05) (tstamp 3eee2221-7af9-4d6a-ba79-a48c3fd1ac35))
  (fp_line (start 43.5 -3.68) (end 39.03 -3.68) (layer "F.CrtYd") (width 0.05) (tstamp 44c331f8-33e4-4ba1-bb1e-3071cc175bfd))
  (fp_line (start 43.5 3.68) (end 43.5 -3.68) (layer "F.CrtYd") (width 0.05) (tstamp 4fe15866-5386-4410-a27b-4fc15182a4f3))
  (fp_line (start -39.03 10.83) (end 39.03 10.83) (layer "F.CrtYd") (width 0.05) (tstamp 6e9aab82-e6c0-4960-99af-e7c5a83d520f))
  (fp_line (start -43.5 -3.68) (end -39.03 -3.68) (layer "F.CrtYd") (width 0.05) (tstamp 7b694997-43fc-41fd-818b-681c539b1571))
  (fp_line (start 39.03 -10.83) (end 39.03 -3.68) (layer "F.CrtYd") (width 0.05) (tstamp 8f29ec2b-5253-4ae2-bf8f-40e83998f739))
  (fp_line (start -39.03 3.68) (end -43.5 3.68) (layer "F.CrtYd") (width 0.05) (tstamp 96cc7009-e5c2-4181-9848-d145b9196cc4))
  (fp_line (start -39.03 10.83) (end -39.03 3.68) (layer "F.CrtYd") (width 0.05) (tstamp a97391c0-c438-44dc-aec7-4249e6f62568))
  (fp_line (start 39.03 10.83) (end 39.03 3.68) (layer "F.CrtYd") (width 0.05) (tstamp c6e8924b-3698-49bc-af6d-d7a327eada39))
  (fp_line (start -39.03 -10.83) (end -39.03 -3.68) (layer "F.CrtYd") (width 0.05) (tstamp cdf69da0-bf1d-48b6-92e4-7b762bd4454d))
  (fp_line (start -39.03 -10.83) (end 39.03 -10.83) (layer "F.CrtYd") (width 0.05) (tstamp db09a492-3111-4077-8b89-2ff4c8eebad3))
  (fp_line (start -33.3675 -10.33) (end -38.53 -5.1675) (layer "F.Fab") (width 0.1) (tstamp 18ee575f-d41e-4a26-ac0a-b229112d8877))
  (fp_line (start -38.53 10.33) (end 38.53 10.33) (layer "F.Fab") (width 0.1) (tstamp 21a4e5f9-158c-4a1e-a6d3-12c826291e62))
  (fp_line (start -38.53 -5.1675) (end -38.53 10.33) (layer "F.Fab") (width 0.1) (tstamp 646182ef-83d3-48ef-8f13-39bd3cf49786))
  (fp_line (start 38.53 -10.33) (end 38.53 10.33) (layer "F.Fab") (width 0.1) (tstamp 689e49bf-7f41-4390-9297-8151fb94eb64))
  (fp_line (start -33.3675 -10.33) (end 38.53 -10.33) (layer "F.Fab") (width 0.1) (tstamp fe0a8ab1-7b25-4d9a-9a3b-f8c5e10b289a))
  (pad "1" smd rect (at -39.33 0) (size 7.34 6.35) (layers "F.Cu" "F.Paste" "F.Mask") (tstamp 2aabebab-10c6-4637-946b-cda31980f550))
  (pad "2" smd rect (at 39.33 0) (size 7.34 6.35) (layers "F.Cu" "F.Paste" "F.Mask") (tstamp a6d1221a-1077-412d-8a73-7025f9b4ca20))
  (model "${KISYS3DMOD}/Battery.3dshapes/BatteryHolder_SMD_SMT_1042_1x18650.step"
    (offset (xyz 0 0 0))
    (scale (xyz 1 1 1))
    (rotate (xyz 0 0 0))
  )
  (model "${KIPRJMOD}/libs/BatteryHolder/3d/BatteryHolder_SMD_SMT_1042_1x18650.step"
    (offset (xyz 0 0 0))
    (scale (xyz 1 1 1))
    (rotate (xyz 0 0 0))
  )
)
